assignments/projects/pwmgen/tb/tb_pwm_gen.vcd
$date
	Sun Nov 16 00:48:15 2025
$end
$version
	Icarus Verilog
$end
$timescale
	1ps
$end
$scope module tb_pwm_gen $end
$var wire 1 ! pwm_out $end
$var reg 1 " clk $end
$var reg 16 # compare1 [15:0] $end
$var reg 16 $ compare2 [15:0] $end
$var reg 16 % count_val [15:0] $end
$var reg 1 & expected_pwm $end
$var reg 8 ' functions [7:0] $end
$var reg 16 ( internal_count [15:0] $end
$var reg 16 ) period [15:0] $end
$var reg 1 * pwm_en $end
$var reg 1 + rst_n $end
$var integer 32 , errors [31:0] $end
$var integer 32 - i [31:0] $end
$scope module uut $end
$var wire 1 " clk $end
$var wire 16 . compare1 [15:0] $end
$var wire 16 / compare2 [15:0] $end
$var wire 16 0 count_val [15:0] $end
$var wire 8 1 functions [7:0] $end
$var wire 1 2 overflow_underflow $end
$var wire 16 3 period [15:0] $end
$var wire 1 * pwm_en $end
$var wire 1 + rst_n $end
$var wire 1 4 wrap_event $end
$var wire 1 5 overflow_event $end
$var wire 1 6 aligned_mode $end
$var wire 1 7 align_left_right $end
$var reg 1 8 active_align_left_right $end
$var reg 1 9 active_aligned_mode $end
$var reg 16 : active_compare1 [15:0] $end
$var reg 16 ; active_compare2 [15:0] $end
$var reg 16 < active_period [15:0] $end
$var reg 16 = last_count_val [15:0] $end
$var reg 1 > last_overflow_underflow $end
$var reg 1 ! pwm_out $end
$upscope $end
$scope task do_overflow $end
$var reg 16 ? max_count [15:0] $end
$var integer 32 @ i [31:0] $end
$upscope $end
$upscope $end
$enddefinitions $end
$comment Show the parameter values. $end
$dumpall
$end
#0
$dumpvars
bx @
bx ?
0>
b0 =
b0 <
b0 ;
b0 :
09
08
07
06
15
14
b0 3
12
b0 1
b0 0
b0 /
b0 .
bx -
bx ,
0+
0*
b0 )
bx (
b0 '
x&
b0 %
b0 $
b0 #
0"
0!
$end
#5000
1"
#10000
0"
#15000
1"
#20000
02
04
0"
b0 @
b11111111 ?
05
b11111111 )
b11111111 3
1+
#25000
1"
#30000
0"
b1 %
b1 0
b1 @
#35000
b1 =
1"
#40000
0"
b10 %
b10 0
b10 @
#45000
b10 =
1"
#50000
0"
b11 %
b11 0
b11 @
#55000
b11 =
1"
#60000
0"
b100 %
b100 0
b100 @
#65000
b100 =
1"
#70000
0"
b101 %
b101 0
b101 @
#75000
b101 =
1"
#80000
0"
b110 %
b110 0
b110 @
#85000
b110 =
1"
#90000
0"
b111 %
b111 0
b111 @
#95000
b111 =
1"
#100000
0"
b1000 %
b1000 0
b1000 @
#105000
b1000 =
1"
#110000
0"
b1001 %
b1001 0
b1001 @
#115000
b1001 =
1"
#120000
0"
b1010 %
b1010 0
b1010 @
#125000
b1010 =
1"
#130000
0"
b1011 %
b1011 0
b1011 @
#135000
b1011 =
1"
#140000
0"
b1100 %
b1100 0
b1100 @
#145000
b1100 =
1"
#150000
0"
b1101 %
b1101 0
b1101 @
#155000
b1101 =
1"
#160000
0"
b1110 %
b1110 0
b1110 @
#165000
b1110 =
1"
#170000
0"
b1111 %
b1111 0
b1111 @
#175000
b1111 =
1"
#180000
0"
b10000 %
b10000 0
b10000 @
#185000
b10000 =
1"
#190000
0"
b10001 %
b10001 0
b10001 @
#195000
b10001 =
1"
#200000
0"
b10010 %
b10010 0
b10010 @
#205000
b10010 =
1"
#210000
0"
b10011 %
b10011 0
b10011 @
#215000
b10011 =
1"
#220000
0"
b10100 %
b10100 0
b10100 @
#225000
b10100 =
1"
#230000
0"
b10101 %
b10101 0
b10101 @
#235000
b10101 =
1"
#240000
0"
b10110 %
b10110 0
b10110 @
#245000
b10110 =
1"
#250000
0"
b10111 %
b10111 0
b10111 @
#255000
b10111 =
1"
#260000
0"
b11000 %
b11000 0
b11000 @
#265000
b11000 =
1"
#270000
0"
b11001 %
b11001 0
b11001 @
#275000
b11001 =
1"
#280000
0"
b11010 %
b11010 0
b11010 @
#285000
b11010 =
1"
#290000
0"
b11011 %
b11011 0
b11011 @
#295000
b11011 =
1"
#300000
0"
b11100 %
b11100 0
b11100 @
#305000
b11100 =
1"
#310000
0"
b11101 %
b11101 0
b11101 @
#315000
b11101 =
1"
#320000
0"
b11110 %
b11110 0
b11110 @
#325000
b11110 =
1"
#330000
0"
b11111 %
b11111 0
b11111 @
#335000
b11111 =
1"
#340000
0"
b100000 %
b100000 0
b100000 @
#345000
b100000 =
1"
#350000
0"
b100001 %
b100001 0
b100001 @
#355000
b100001 =
1"
#360000
0"
b100010 %
b100010 0
b100010 @
#365000
b100010 =
1"
#370000
0"
b100011 %
b100011 0
b100011 @
#375000
b100011 =
1"
#380000
0"
b100100 %
b100100 0
b100100 @
#385000
b100100 =
1"
#390000
0"
b100101 %
b100101 0
b100101 @
#395000
b100101 =
1"
#400000
0"
b100110 %
b100110 0
b100110 @
#405000
b100110 =
1"
#410000
0"
b100111 %
b100111 0
b100111 @
#415000
b100111 =
1"
#420000
0"
b101000 %
b101000 0
b101000 @
#425000
b101000 =
1"
#430000
0"
b101001 %
b101001 0
b101001 @
#435000
b101001 =
1"
#440000
0"
b101010 %
b101010 0
b101010 @
#445000
b101010 =
1"
#450000
0"
b101011 %
b101011 0
b101011 @
#455000
b101011 =
1"
#460000
0"
b101100 %
b101100 0
b101100 @
#465000
b101100 =
1"
#470000
0"
b101101 %
b101101 0
b101101 @
#475000
b101101 =
1"
#480000
0"
b101110 %
b101110 0
b101110 @
#485000
b101110 =
1"
#490000
0"
b101111 %
b101111 0
b101111 @
#495000
b101111 =
1"
#500000
0"
b110000 %
b110000 0
b110000 @
#505000
b110000 =
1"
#510000
0"
b110001 %
b110001 0
b110001 @
#515000
b110001 =
1"
#520000
0"
b110010 %
b110010 0
b110010 @
#525000
b110010 =
1"
#530000
0"
b110011 %
b110011 0
b110011 @
#535000
b110011 =
1"
#540000
0"
b110100 %
b110100 0
b110100 @
#545000
b110100 =
1"
#550000
0"
b110101 %
b110101 0
b110101 @
#555000
b110101 =
1"
#560000
0"
b110110 %
b110110 0
b110110 @
#565000
b110110 =
1"
#570000
0"
b110111 %
b110111 0
b110111 @
#575000
b110111 =
1"
#580000
0"
b111000 %
b111000 0
b111000 @
#585000
b111000 =
1"
#590000
0"
b111001 %
b111001 0
b111001 @
#595000
b111001 =
1"
#600000
0"
b111010 %
b111010 0
b111010 @
#605000
b111010 =
1"
#610000
0"
b111011 %
b111011 0
b111011 @
#615000
b111011 =
1"
#620000
0"
b111100 %
b111100 0
b111100 @
#625000
b111100 =
1"
#630000
0"
b111101 %
b111101 0
b111101 @
#635000
b111101 =
1"
#640000
0"
b111110 %
b111110 0
b111110 @
#645000
b111110 =
1"
#650000
0"
b111111 %
b111111 0
b111111 @
#655000
b111111 =
1"
#660000
0"
b1000000 %
b1000000 0
b1000000 @
#665000
b1000000 =
1"
#670000
0"
b1000001 %
b1000001 0
b1000001 @
#675000
b1000001 =
1"
#680000
0"
b1000010 %
b1000010 0
b1000010 @
#685000
b1000010 =
1"
#690000
0"
b1000011 %
b1000011 0
b1000011 @
#695000
b1000011 =
1"
#700000
0"
b1000100 %
b1000100 0
b1000100 @
#705000
b1000100 =
1"
#710000
0"
b1000101 %
b1000101 0
b1000101 @
#715000
b1000101 =
1"
#720000
0"
b1000110 %
b1000110 0
b1000110 @
#725000
b1000110 =
1"
#730000
0"
b1000111 %
b1000111 0
b1000111 @
#735000
b1000111 =
1"
#740000
0"
b1001000 %
b1001000 0
b1001000 @
#745000
b1001000 =
1"
#750000
0"
b1001001 %
b1001001 0
b1001001 @
#755000
b1001001 =
1"
#760000
0"
b1001010 %
b1001010 0
b1001010 @
#765000
b1001010 =
1"
#770000
0"
b1001011 %
b1001011 0
b1001011 @
#775000
b1001011 =
1"
#780000
0"
b1001100 %
b1001100 0
b1001100 @
#785000
b1001100 =
1"
#790000
0"
b1001101 %
b1001101 0
b1001101 @
#795000
b1001101 =
1"
#800000
0"
b1001110 %
b1001110 0
b1001110 @
#805000
b1001110 =
1"
#810000
0"
b1001111 %
b1001111 0
b1001111 @
#815000
b1001111 =
1"
#820000
0"
b1010000 %
b1010000 0
b1010000 @
#825000
b1010000 =
1"
#830000
0"
b1010001 %
b1010001 0
b1010001 @
#835000
b1010001 =
1"
#840000
0"
b1010010 %
b1010010 0
b1010010 @
#845000
b1010010 =
1"
#850000
0"
b1010011 %
b1010011 0
b1010011 @
#855000
b1010011 =
1"
#860000
0"
b1010100 %
b1010100 0
b1010100 @
#865000
b1010100 =
1"
#870000
0"
b1010101 %
b1010101 0
b1010101 @
#875000
b1010101 =
1"
#880000
0"
b1010110 %
b1010110 0
b1010110 @
#885000
b1010110 =
1"
#890000
0"
b1010111 %
b1010111 0
b1010111 @
#895000
b1010111 =
1"
#900000
0"
b1011000 %
b1011000 0
b1011000 @
#905000
b1011000 =
1"
#910000
0"
b1011001 %
b1011001 0
b1011001 @
#915000
b1011001 =
1"
#920000
0"
b1011010 %
b1011010 0
b1011010 @
#925000
b1011010 =
1"
#930000
0"
b1011011 %
b1011011 0
b1011011 @
#935000
b1011011 =
1"
#940000
0"
b1011100 %
b1011100 0
b1011100 @
#945000
b1011100 =
1"
#950000
0"
b1011101 %
b1011101 0
b1011101 @
#955000
b1011101 =
1"
#960000
0"
b1011110 %
b1011110 0
b1011110 @
#965000
b1011110 =
1"
#970000
0"
b1011111 %
b1011111 0
b1011111 @
#975000
b1011111 =
1"
#980000
0"
b1100000 %
b1100000 0
b1100000 @
#985000
b1100000 =
1"
#990000
0"
b1100001 %
b1100001 0
b1100001 @
#995000
b1100001 =
1"
#1000000
0"
b1100010 %
b1100010 0
b1100010 @
#1005000
b1100010 =
1"
#1010000
0"
b1100011 %
b1100011 0
b1100011 @
#1015000
b1100011 =
1"
#1020000
0"
b1100100 %
b1100100 0
b1100100 @
#1025000
b1100100 =
1"
#1030000
0"
b1100101 %
b1100101 0
b1100101 @
#1035000
b1100101 =
1"
#1040000
0"
b1100110 %
b1100110 0
b1100110 @
#1045000
b1100110 =
1"
#1050000
0"
b1100111 %
b1100111 0
b1100111 @
#1055000
b1100111 =
1"
#1060000
0"
b1101000 %
b1101000 0
b1101000 @
#1065000
b1101000 =
1"
#1070000
0"
b1101001 %
b1101001 0
b1101001 @
#1075000
b1101001 =
1"
#1080000
0"
b1101010 %
b1101010 0
b1101010 @
#1085000
b1101010 =
1"
#1090000
0"
b1101011 %
b1101011 0
b1101011 @
#1095000
b1101011 =
1"
#1100000
0"
b1101100 %
b1101100 0
b1101100 @
#1105000
b1101100 =
1"
#1110000
0"
b1101101 %
b1101101 0
b1101101 @
#1115000
b1101101 =
1"
#1120000
0"
b1101110 %
b1101110 0
b1101110 @
#1125000
b1101110 =
1"
#1130000
0"
b1101111 %
b1101111 0
b1101111 @
#1135000
b1101111 =
1"
#1140000
0"
b1110000 %
b1110000 0
b1110000 @
#1145000
b1110000 =
1"
#1150000
0"
b1110001 %
b1110001 0
b1110001 @
#1155000
b1110001 =
1"
#1160000
0"
b1110010 %
b1110010 0
b1110010 @
#1165000
b1110010 =
1"
#1170000
0"
b1110011 %
b1110011 0
b1110011 @
#1175000
b1110011 =
1"
#1180000
0"
b1110100 %
b1110100 0
b1110100 @
#1185000
b1110100 =
1"
#1190000
0"
b1110101 %
b1110101 0
b1110101 @
#1195000
b1110101 =
1"
#1200000
0"
b1110110 %
b1110110 0
b1110110 @
#1205000
b1110110 =
1"
#1210000
0"
b1110111 %
b1110111 0
b1110111 @
#1215000
b1110111 =
1"
#1220000
0"
b1111000 %
b1111000 0
b1111000 @
#1225000
b1111000 =
1"
#1230000
0"
b1111001 %
b1111001 0
b1111001 @
#1235000
b1111001 =
1"
#1240000
0"
b1111010 %
b1111010 0
b1111010 @
#1245000
b1111010 =
1"
#1250000
0"
b1111011 %
b1111011 0
b1111011 @
#1255000
b1111011 =
1"
#1260000
0"
b1111100 %
b1111100 0
b1111100 @
#1265000
b1111100 =
1"
#1270000
0"
b1111101 %
b1111101 0
b1111101 @
#1275000
b1111101 =
1"
#1280000
0"
b1111110 %
b1111110 0
b1111110 @
#1285000
b1111110 =
1"
#1290000
0"
b1111111 %
b1111111 0
b1111111 @
#1295000
b1111111 =
1"
#1300000
0"
b10000000 %
b10000000 0
b10000000 @
#1305000
b10000000 =
1"
#1310000
0"
b10000001 %
b10000001 0
b10000001 @
#1315000
b10000001 =
1"
#1320000
0"
b10000010 %
b10000010 0
b10000010 @
#1325000
b10000010 =
1"
#1330000
0"
b10000011 %
b10000011 0
b10000011 @
#1335000
b10000011 =
1"
#1340000
0"
b10000100 %
b10000100 0
b10000100 @
#1345000
b10000100 =
1"
#1350000
0"
b10000101 %
b10000101 0
b10000101 @
#1355000
b10000101 =
1"
#1360000
0"
b10000110 %
b10000110 0
b10000110 @
#1365000
b10000110 =
1"
#1370000
0"
b10000111 %
b10000111 0
b10000111 @
#1375000
b10000111 =
1"
#1380000
0"
b10001000 %
b10001000 0
b10001000 @
#1385000
b10001000 =
1"
#1390000
0"
b10001001 %
b10001001 0
b10001001 @
#1395000
b10001001 =
1"
#1400000
0"
b10001010 %
b10001010 0
b10001010 @
#1405000
b10001010 =
1"
#1410000
0"
b10001011 %
b10001011 0
b10001011 @
#1415000
b10001011 =
1"
#1420000
0"
b10001100 %
b10001100 0
b10001100 @
#1425000
b10001100 =
1"
#1430000
0"
b10001101 %
b10001101 0
b10001101 @
#1435000
b10001101 =
1"
#1440000
0"
b10001110 %
b10001110 0
b10001110 @
#1445000
b10001110 =
1"
#1450000
0"
b10001111 %
b10001111 0
b10001111 @
#1455000
b10001111 =
1"
#1460000
0"
b10010000 %
b10010000 0
b10010000 @
#1465000
b10010000 =
1"
#1470000
0"
b10010001 %
b10010001 0
b10010001 @
#1475000
b10010001 =
1"
#1480000
0"
b10010010 %
b10010010 0
b10010010 @
#1485000
b10010010 =
1"
#1490000
0"
b10010011 %
b10010011 0
b10010011 @
#1495000
b10010011 =
1"
#1500000
0"
b10010100 %
b10010100 0
b10010100 @
#1505000
b10010100 =
1"
#1510000
0"
b10010101 %
b10010101 0
b10010101 @
#1515000
b10010101 =
1"
#1520000
0"
b10010110 %
b10010110 0
b10010110 @
#1525000
b10010110 =
1"
#1530000
0"
b10010111 %
b10010111 0
b10010111 @
#1535000
b10010111 =
1"
#1540000
0"
b10011000 %
b10011000 0
b10011000 @
#1545000
b10011000 =
1"
#1550000
0"
b10011001 %
b10011001 0
b10011001 @
#1555000
b10011001 =
1"
#1560000
0"
b10011010 %
b10011010 0
b10011010 @
#1565000
b10011010 =
1"
#1570000
0"
b10011011 %
b10011011 0
b10011011 @
#1575000
b10011011 =
1"
#1580000
0"
b10011100 %
b10011100 0
b10011100 @
#1585000
b10011100 =
1"
#1590000
0"
b10011101 %
b10011101 0
b10011101 @
#1595000
b10011101 =
1"
#1600000
0"
b10011110 %
b10011110 0
b10011110 @
#1605000
b10011110 =
1"
#1610000
0"
b10011111 %
b10011111 0
b10011111 @
#1615000
b10011111 =
1"
#1620000
0"
b10100000 %
b10100000 0
b10100000 @
#1625000
b10100000 =
1"
#1630000
0"
b10100001 %
b10100001 0
b10100001 @
#1635000
b10100001 =
1"
#1640000
0"
b10100010 %
b10100010 0
b10100010 @
#1645000
b10100010 =
1"
#1650000
0"
b10100011 %
b10100011 0
b10100011 @
#1655000
b10100011 =
1"
#1660000
0"
b10100100 %
b10100100 0
b10100100 @
#1665000
b10100100 =
1"
#1670000
0"
b10100101 %
b10100101 0
b10100101 @
#1675000
b10100101 =
1"
#1680000
0"
b10100110 %
b10100110 0
b10100110 @
#1685000
b10100110 =
1"
#1690000
0"
b10100111 %
b10100111 0
b10100111 @
#1695000
b10100111 =
1"
#1700000
0"
b10101000 %
b10101000 0
b10101000 @
#1705000
b10101000 =
1"
#1710000
0"
b10101001 %
b10101001 0
b10101001 @
#1715000
b10101001 =
1"
#1720000
0"
b10101010 %
b10101010 0
b10101010 @
#1725000
b10101010 =
1"
#1730000
0"
b10101011 %
b10101011 0
b10101011 @
#1735000
b10101011 =
1"
#1740000
0"
b10101100 %
b10101100 0
b10101100 @
#1745000
b10101100 =
1"
#1750000
0"
b10101101 %
b10101101 0
b10101101 @
#1755000
b10101101 =
1"
#1760000
0"
b10101110 %
b10101110 0
b10101110 @
#1765000
b10101110 =
1"
#1770000
0"
b10101111 %
b10101111 0
b10101111 @
#1775000
b10101111 =
1"
#1780000
0"
b10110000 %
b10110000 0
b10110000 @
#1785000
b10110000 =
1"
#1790000
0"
b10110001 %
b10110001 0
b10110001 @
#1795000
b10110001 =
1"
#1800000
0"
b10110010 %
b10110010 0
b10110010 @
#1805000
b10110010 =
1"
#1810000
0"
b10110011 %
b10110011 0
b10110011 @
#1815000
b10110011 =
1"
#1820000
0"
b10110100 %
b10110100 0
b10110100 @
#1825000
b10110100 =
1"
#1830000
0"
b10110101 %
b10110101 0
b10110101 @
#1835000
b10110101 =
1"
#1840000
0"
b10110110 %
b10110110 0
b10110110 @
#1845000
b10110110 =
1"
#1850000
0"
b10110111 %
b10110111 0
b10110111 @
#1855000
b10110111 =
1"
#1860000
0"
b10111000 %
b10111000 0
b10111000 @
#1865000
b10111000 =
1"
#1870000
0"
b10111001 %
b10111001 0
b10111001 @
#1875000
b10111001 =
1"
#1880000
0"
b10111010 %
b10111010 0
b10111010 @
#1885000
b10111010 =
1"
#1890000
0"
b10111011 %
b10111011 0
b10111011 @
#1895000
b10111011 =
1"
#1900000
0"
b10111100 %
b10111100 0
b10111100 @
#1905000
b10111100 =
1"
#1910000
0"
b10111101 %
b10111101 0
b10111101 @
#1915000
b10111101 =
1"
#1920000
0"
b10111110 %
b10111110 0
b10111110 @
#1925000
b10111110 =
1"
#1930000
0"
b10111111 %
b10111111 0
b10111111 @
#1935000
b10111111 =
1"
#1940000
0"
b11000000 %
b11000000 0
b11000000 @
#1945000
b11000000 =
1"
#1950000
0"
b11000001 %
b11000001 0
b11000001 @
#1955000
b11000001 =
1"
#1960000
0"
b11000010 %
b11000010 0
b11000010 @
#1965000
b11000010 =
1"
#1970000
0"
b11000011 %
b11000011 0
b11000011 @
#1975000
b11000011 =
1"
#1980000
0"
b11000100 %
b11000100 0
b11000100 @
#1985000
b11000100 =
1"
#1990000
0"
b11000101 %
b11000101 0
b11000101 @
#1995000
b11000101 =
1"
#2000000
0"
b11000110 %
b11000110 0
b11000110 @
#2005000
b11000110 =
1"
#2010000
0"
b11000111 %
b11000111 0
b11000111 @
#2015000
b11000111 =
1"
#2020000
0"
b11001000 %
b11001000 0
b11001000 @
#2025000
b11001000 =
1"
#2030000
0"
b11001001 %
b11001001 0
b11001001 @
#2035000
b11001001 =
1"
#2040000
0"
b11001010 %
b11001010 0
b11001010 @
#2045000
b11001010 =
1"
#2050000
0"
b11001011 %
b11001011 0
b11001011 @
#2055000
b11001011 =
1"
#2060000
0"
b11001100 %
b11001100 0
b11001100 @
#2065000
b11001100 =
1"
#2070000
0"
b11001101 %
b11001101 0
b11001101 @
#2075000
b11001101 =
1"
#2080000
0"
b11001110 %
b11001110 0
b11001110 @
#2085000
b11001110 =
1"
#2090000
0"
b11001111 %
b11001111 0
b11001111 @
#2095000
b11001111 =
1"
#2100000
0"
b11010000 %
b11010000 0
b11010000 @
#2105000
b11010000 =
1"
#2110000
0"
b11010001 %
b11010001 0
b11010001 @
#2115000
b11010001 =
1"
#2120000
0"
b11010010 %
b11010010 0
b11010010 @
#2125000
b11010010 =
1"
#2130000
0"
b11010011 %
b11010011 0
b11010011 @
#2135000
b11010011 =
1"
#2140000
0"
b11010100 %
b11010100 0
b11010100 @
#2145000
b11010100 =
1"
#2150000
0"
b11010101 %
b11010101 0
b11010101 @
#2155000
b11010101 =
1"
#2160000
0"
b11010110 %
b11010110 0
b11010110 @
#2165000
b11010110 =
1"
#2170000
0"
b11010111 %
b11010111 0
b11010111 @
#2175000
b11010111 =
1"
#2180000
0"
b11011000 %
b11011000 0
b11011000 @
#2185000
b11011000 =
1"
#2190000
0"
b11011001 %
b11011001 0
b11011001 @
#2195000
b11011001 =
1"
#2200000
0"
b11011010 %
b11011010 0
b11011010 @
#2205000
b11011010 =
1"
#2210000
0"
b11011011 %
b11011011 0
b11011011 @
#2215000
b11011011 =
1"
#2220000
0"
b11011100 %
b11011100 0
b11011100 @
#2225000
b11011100 =
1"
#2230000
0"
b11011101 %
b11011101 0
b11011101 @
#2235000
b11011101 =
1"
#2240000
0"
b11011110 %
b11011110 0
b11011110 @
#2245000
b11011110 =
1"
#2250000
0"
b11011111 %
b11011111 0
b11011111 @
#2255000
b11011111 =
1"
#2260000
0"
b11100000 %
b11100000 0
b11100000 @
#2265000
b11100000 =
1"
#2270000
0"
b11100001 %
b11100001 0
b11100001 @
#2275000
b11100001 =
1"
#2280000
0"
b11100010 %
b11100010 0
b11100010 @
#2285000
b11100010 =
1"
#2290000
0"
b11100011 %
b11100011 0
b11100011 @
#2295000
b11100011 =
1"
#2300000
0"
b11100100 %
b11100100 0
b11100100 @
#2305000
b11100100 =
1"
#2310000
0"
b11100101 %
b11100101 0
b11100101 @
#2315000
b11100101 =
1"
#2320000
0"
b11100110 %
b11100110 0
b11100110 @
#2325000
b11100110 =
1"
#2330000
0"
b11100111 %
b11100111 0
b11100111 @
#2335000
b11100111 =
1"
#2340000
0"
b11101000 %
b11101000 0
b11101000 @
#2345000
b11101000 =
1"
#2350000
0"
b11101001 %
b11101001 0
b11101001 @
#2355000
b11101001 =
1"
#2360000
0"
b11101010 %
b11101010 0
b11101010 @
#2365000
b11101010 =
1"
#2370000
0"
b11101011 %
b11101011 0
b11101011 @
#2375000
b11101011 =
1"
#2380000
0"
b11101100 %
b11101100 0
b11101100 @
#2385000
b11101100 =
1"
#2390000
0"
b11101101 %
b11101101 0
b11101101 @
#2395000
b11101101 =
1"
#2400000
0"
b11101110 %
b11101110 0
b11101110 @
#2405000
b11101110 =
1"
#2410000
0"
b11101111 %
b11101111 0
b11101111 @
#2415000
b11101111 =
1"
#2420000
0"
b11110000 %
b11110000 0
b11110000 @
#2425000
b11110000 =
1"
#2430000
0"
b11110001 %
b11110001 0
b11110001 @
#2435000
b11110001 =
1"
#2440000
0"
b11110010 %
b11110010 0
b11110010 @
#2445000
b11110010 =
1"
#2450000
0"
b11110011 %
b11110011 0
b11110011 @
#2455000
b11110011 =
1"
#2460000
0"
b11110100 %
b11110100 0
b11110100 @
#2465000
b11110100 =
1"
#2470000
0"
b11110101 %
b11110101 0
b11110101 @
#2475000
b11110101 =
1"
#2480000
0"
b11110110 %
b11110110 0
b11110110 @
#2485000
b11110110 =
1"
#2490000
0"
b11110111 %
b11110111 0
b11110111 @
#2495000
b11110111 =
1"
#2500000
0"
b11111000 %
b11111000 0
b11111000 @
#2505000
b11111000 =
1"
#2510000
0"
b11111001 %
b11111001 0
b11111001 @
#2515000
b11111001 =
1"
#2520000
0"
b11111010 %
b11111010 0
b11111010 @
#2525000
b11111010 =
1"
#2530000
0"
b11111011 %
b11111011 0
b11111011 @
#2535000
b11111011 =
1"
#2540000
0"
b11111100 %
b11111100 0
b11111100 @
#2545000
b11111100 =
1"
#2550000
0"
b11111101 %
b11111101 0
b11111101 @
#2555000
b11111101 =
1"
#2560000
0"
b11111110 %
b11111110 0
b11111110 @
#2565000
b11111110 =
1"
#2570000
12
0"
15
b11111111 %
b11111111 0
b11111111 @
#2575000
b11111111 <
1>
b11111111 =
1"
#2580000
0"
b100000000 @
#2585000
1"
#2590000
0"
1*
#2595000
1"
#2600000
14
0"
05
b0 %
b0 0
b0 @
#2605000
02
04
b0 =
1"
#2610000
0"
b1 %
b1 0
b1 @
#2615000
0>
b1 =
1"
#2620000
0"
b10 %
b10 0
b10 @
#2625000
b10 =
1"
#2630000
0"
b11 %
b11 0
b11 @
#2635000
b11 =
1"
#2640000
0"
b100 %
b100 0
b100 @
#2645000
b100 =
1"
#2650000
0"
b101 %
b101 0
b101 @
#2655000
b101 =
1"
#2660000
0"
b110 %
b110 0
b110 @
#2665000
b110 =
1"
#2670000
0"
b111 %
b111 0
b111 @
#2675000
b111 =
1"
#2680000
0"
b1000 %
b1000 0
b1000 @
#2685000
b1000 =
1"
#2690000
0"
b1001 %
b1001 0
b1001 @
#2695000
b1001 =
1"
#2700000
0"
b1010 %
b1010 0
b1010 @
#2705000
b1010 =
1"
#2710000
0"
b1011 %
b1011 0
b1011 @
#2715000
b1011 =
1"
#2720000
0"
b1100 %
b1100 0
b1100 @
#2725000
b1100 =
1"
#2730000
0"
b1101 %
b1101 0
b1101 @
#2735000
b1101 =
1"
#2740000
0"
b1110 %
b1110 0
b1110 @
#2745000
b1110 =
1"
#2750000
0"
b1111 %
b1111 0
b1111 @
#2755000
b1111 =
1"
#2760000
0"
b10000 %
b10000 0
b10000 @
#2765000
b10000 =
1"
#2770000
0"
b10001 %
b10001 0
b10001 @
#2775000
b10001 =
1"
#2780000
0"
b10010 %
b10010 0
b10010 @
#2785000
b10010 =
1"
#2790000
0"
b10011 %
b10011 0
b10011 @
#2795000
b10011 =
1"
#2800000
0"
b10100 %
b10100 0
b10100 @
#2805000
b10100 =
1"
#2810000
0"
b10101 %
b10101 0
b10101 @
#2815000
b10101 =
1"
#2820000
0"
b10110 %
b10110 0
b10110 @
#2825000
b10110 =
1"
#2830000
0"
b10111 %
b10111 0
b10111 @
#2835000
b10111 =
1"
#2840000
0"
b11000 %
b11000 0
b11000 @
#2845000
b11000 =
1"
#2850000
0"
b11001 %
b11001 0
b11001 @
#2855000
b11001 =
1"
#2860000
0"
b11010 %
b11010 0
b11010 @
#2865000
b11010 =
1"
#2870000
0"
b11011 %
b11011 0
b11011 @
#2875000
b11011 =
1"
#2880000
0"
b11100 %
b11100 0
b11100 @
#2885000
b11100 =
1"
#2890000
0"
b11101 %
b11101 0
b11101 @
#2895000
b11101 =
1"
#2900000
0"
b11110 %
b11110 0
b11110 @
#2905000
b11110 =
1"
#2910000
0"
b11111 %
b11111 0
b11111 @
#2915000
b11111 =
1"
#2920000
0"
b100000 %
b100000 0
b100000 @
#2925000
b100000 =
1"
#2930000
0"
b100001 %
b100001 0
b100001 @
#2935000
b100001 =
1"
#2940000
0"
b100010 %
b100010 0
b100010 @
#2945000
b100010 =
1"
#2950000
0"
b100011 %
b100011 0
b100011 @
#2955000
b100011 =
1"
#2960000
0"
b100100 %
b100100 0
b100100 @
#2965000
b100100 =
1"
#2970000
0"
b100101 %
b100101 0
b100101 @
#2975000
b100101 =
1"
#2980000
0"
b100110 %
b100110 0
b100110 @
#2985000
b100110 =
1"
#2990000
0"
b100111 %
b100111 0
b100111 @
#2995000
b100111 =
1"
#3000000
0"
b101000 %
b101000 0
b101000 @
#3005000
b101000 =
1"
#3010000
0"
b101001 %
b101001 0
b101001 @
#3015000
b101001 =
1"
#3020000
0"
b101010 %
b101010 0
b101010 @
#3025000
b101010 =
1"
#3030000
0"
b101011 %
b101011 0
b101011 @
#3035000
b101011 =
1"
#3040000
0"
b101100 %
b101100 0
b101100 @
#3045000
b101100 =
1"
#3050000
0"
b101101 %
b101101 0
b101101 @
#3055000
b101101 =
1"
#3060000
0"
b101110 %
b101110 0
b101110 @
#3065000
b101110 =
1"
#3070000
0"
b101111 %
b101111 0
b101111 @
#3075000
b101111 =
1"
#3080000
0"
b110000 %
b110000 0
b110000 @
#3085000
b110000 =
1"
#3090000
0"
b110001 %
b110001 0
b110001 @
#3095000
b110001 =
1"
#3100000
0"
b110010 %
b110010 0
b110010 @
#3105000
b110010 =
1"
#3110000
0"
b110011 %
b110011 0
b110011 @
#3115000
b110011 =
1"
#3120000
0"
b110100 %
b110100 0
b110100 @
#3125000
b110100 =
1"
#3130000
0"
b110101 %
b110101 0
b110101 @
#3135000
b110101 =
1"
#3140000
0"
b110110 %
b110110 0
b110110 @
#3145000
b110110 =
1"
#3150000
0"
b110111 %
b110111 0
b110111 @
#3155000
b110111 =
1"
#3160000
0"
b111000 %
b111000 0
b111000 @
#3165000
b111000 =
1"
#3170000
0"
b111001 %
b111001 0
b111001 @
#3175000
b111001 =
1"
#3180000
0"
b111010 %
b111010 0
b111010 @
#3185000
b111010 =
1"
#3190000
0"
b111011 %
b111011 0
b111011 @
#3195000
b111011 =
1"
#3200000
0"
b111100 %
b111100 0
b111100 @
#3205000
b111100 =
1"
#3210000
0"
b111101 %
b111101 0
b111101 @
#3215000
b111101 =
1"
#3220000
0"
b111110 %
b111110 0
b111110 @
#3225000
b111110 =
1"
#3230000
0"
b111111 %
b111111 0
b111111 @
#3235000
b111111 =
1"
#3240000
0"
b1000000 %
b1000000 0
b1000000 @
#3245000
b1000000 =
1"
#3250000
0"
b1000001 %
b1000001 0
b1000001 @
#3255000
b1000001 =
1"
#3260000
0"
b1000010 %
b1000010 0
b1000010 @
#3265000
b1000010 =
1"
#3270000
0"
b1000011 %
b1000011 0
b1000011 @
#3275000
b1000011 =
1"
#3280000
0"
b1000100 %
b1000100 0
b1000100 @
#3285000
b1000100 =
1"
#3290000
0"
b1000101 %
b1000101 0
b1000101 @
#3295000
b1000101 =
1"
#3300000
0"
b1000110 %
b1000110 0
b1000110 @
#3305000
b1000110 =
1"
#3310000
0"
b1000111 %
b1000111 0
b1000111 @
#3315000
b1000111 =
1"
#3320000
0"
b1001000 %
b1001000 0
b1001000 @
#3325000
b1001000 =
1"
#3330000
0"
b1001001 %
b1001001 0
b1001001 @
#3335000
b1001001 =
1"
#3340000
0"
b1001010 %
b1001010 0
b1001010 @
#3345000
b1001010 =
1"
#3350000
0"
b1001011 %
b1001011 0
b1001011 @
#3355000
b1001011 =
1"
#3360000
0"
b1001100 %
b1001100 0
b1001100 @
#3365000
b1001100 =
1"
#3370000
0"
b1001101 %
b1001101 0
b1001101 @
#3375000
b1001101 =
1"
